{
	"id": "94ba495a-6de6-4fa4-bc12-8241de9ea669",
	"name": "GWE Local",
	"values": [
		{
			"key": "host",
			"value": "https://localhost:44338",
			"enabled": true
		}
	],
	"_postman_variable_scope": "environment",
	"_postman_exported_at": "2020-03-11T07:25:05.312Z",
	"_postman_exported_using": "Postman/7.20.0"
}